(export (version D)
  (design
    (source "C:\\Users\\sebastianL\\Desktop\\DHBW\\Studienarbeit\\Projekt Git\\diy-homeautomation\\sensoren\\ATmega_I2C-Slave_pcb\\ATmega_I2C-Slave_pcb.sch")
    (date "07.06.2021 23:32:41")
    (tool "Eeschema (5.1.8)-1")
    (sheet (number 1) (name /) (tstamps /)
      (title_block
        (title "ATmega328P I2C-Slave Platine")
        (company "Sebastian Link ET18A")
        (rev)
        (date 2021-06-07)
        (source ATmega_I2C-Slave_pcb.sch)
        (comment (number 1) (value "DHBW Mosbach"))
        (comment (number 2) (value "Studiengang Elektrotechnik"))
        (comment (number 3) (value ""))
        (comment (number 4) (value "")))))
  (components
    (comp (ref IC1)
      (value ATMEGA328P)
      (footprint Sensornode:DIL28-3)
      (libsource (lib Sensornode-eagle-import) (part ATMEGA328P) (description ""))
      (sheetpath (names /) (tstamps /))
      (tstamp 60BE80B9))
    (comp (ref SV2)
      (value MA04-1)
      (footprint Sensornode:MA04-1)
      (libsource (lib Sensornode-eagle-import) (part MA04-1) (description ""))
      (sheetpath (names /) (tstamps /))
      (tstamp 60BE9B40))
    (comp (ref SV1)
      (value MA04-1)
      (footprint Sensornode:MA04-1)
      (libsource (lib Sensornode-eagle-import) (part MA04-1) (description ""))
      (sheetpath (names /) (tstamps /))
      (tstamp 60BE9CEC))
    (comp (ref SV3)
      (value MA04-1)
      (footprint Sensornode:MA04-1)
      (libsource (lib Sensornode-eagle-import) (part MA04-1) (description ""))
      (sheetpath (names /) (tstamps /))
      (tstamp 60BEBE0E)))
  (libparts
    (libpart (lib Sensornode-eagle-import) (part ATMEGA328P)
      (fields
        (field (name Reference) IC)
        (field (name Value) ATMEGA328P))
      (pins
        (pin (num 1) (name "PC6(/RESET/PCI14)") (type BiDi))
        (pin (num 2) (name "(PCI16/RXD)PD0") (type BiDi))
        (pin (num 3) (name "(PCI17/TXD)PD1") (type BiDi))
        (pin (num 4) (name "(PCI18/INT0)PD2") (type BiDi))
        (pin (num 5) (name "(PCI19/INT1/OC2B)PD3") (type BiDi))
        (pin (num 6) (name "(PCI20/XCK/T0)PD4") (type BiDi))
        (pin (num 7) (name VCC) (type BiDi))
        (pin (num 8) (name GND) (type BiDi))
        (pin (num 9) (name "PB6(XTAL1/TOSC1/PCI6)") (type BiDi))
        (pin (num 10) (name "PB7(XTAL2/TOSC2/PCI7)") (type BiDi))
        (pin (num 11) (name "(PCI21/T1/OC0B)PD5") (type BiDi))
        (pin (num 12) (name "(PCI22/AIN0OC0A)PD6") (type BiDi))
        (pin (num 13) (name "(PCI23/AIN1)PD7") (type BiDi))
        (pin (num 14) (name "(PCI0/ICP/CLKO)PB0") (type BiDi))
        (pin (num 15) (name "(PCI1/OC1A/OC1S)PB1") (type BiDi))
        (pin (num 16) (name "(PCI2/SS/OC1B)PB2") (type BiDi))
        (pin (num 17) (name "(PCI3/MOSI/OC2A)PB3") (type BiDi))
        (pin (num 18) (name "(PCI4/MISO)PB4") (type BiDi))
        (pin (num 19) (name "(PCI5/SCK)PB5") (type BiDi))
        (pin (num 20) (name AVCC) (type BiDi))
        (pin (num 21) (name AREF) (type BiDi))
        (pin (num 22) (name AGND) (type BiDi))
        (pin (num 23) (name "(PCI8/ADC0)PC0") (type BiDi))
        (pin (num 24) (name "(PCI9/ADC1)PC1") (type BiDi))
        (pin (num 25) (name "(PCI10/ADC2)PC2") (type BiDi))
        (pin (num 26) (name "(PCI11/ADC3)PC3") (type BiDi))
        (pin (num 27) (name "(PCI12/ADC4/SDA)PC4") (type BiDi))
        (pin (num 28) (name "(PCI13/ADC5/SCL)PC5") (type BiDi))))
    (libpart (lib Sensornode-eagle-import) (part MA04-1)
      (fields
        (field (name Reference) SV)
        (field (name Value) MA04-1))
      (pins
        (pin (num 1) (name 1) (type passive))
        (pin (num 2) (name 2) (type passive))
        (pin (num 3) (name 3) (type passive))
        (pin (num 4) (name 4) (type passive)))))
  (libraries
    (library (logical Sensornode-eagle-import)
      (uri "C:/Users/sebastianL/Desktop/Studienarbeit Git/diy-homeautomation/sensoren/Slave_pcb/Sensornode-eagle-import.lib")))
  (nets
    (net (code 1) (name +5V)
      (node (ref IC1) (pin 20))
      (node (ref SV3) (pin 4))
      (node (ref SV1) (pin 1))
      (node (ref SV2) (pin 1))
      (node (ref IC1) (pin 7)))
    (net (code 2) (name GND)
      (node (ref SV3) (pin 3))
      (node (ref SV1) (pin 2))
      (node (ref SV2) (pin 2))
      (node (ref IC1) (pin 8)))
    (net (code 3) (name /TX)
      (node (ref IC1) (pin 3))
      (node (ref SV3) (pin 2)))
    (net (code 4) (name /RX)
      (node (ref SV3) (pin 1))
      (node (ref IC1) (pin 2)))
    (net (code 5) (name "Net-(IC1-Pad4)")
      (node (ref IC1) (pin 4)))
    (net (code 6) (name "Net-(IC1-Pad26)")
      (node (ref IC1) (pin 26)))
    (net (code 7) (name "Net-(IC1-Pad25)")
      (node (ref IC1) (pin 25)))
    (net (code 8) (name "Net-(IC1-Pad24)")
      (node (ref IC1) (pin 24)))
    (net (code 9) (name "Net-(IC1-Pad23)")
      (node (ref IC1) (pin 23)))
    (net (code 10) (name "Net-(IC1-Pad22)")
      (node (ref IC1) (pin 22)))
    (net (code 11) (name "Net-(IC1-Pad21)")
      (node (ref IC1) (pin 21)))
    (net (code 12) (name "Net-(IC1-Pad5)")
      (node (ref IC1) (pin 5)))
    (net (code 13) (name "Net-(IC1-Pad19)")
      (node (ref IC1) (pin 19)))
    (net (code 14) (name "Net-(IC1-Pad18)")
      (node (ref IC1) (pin 18)))
    (net (code 15) (name "Net-(IC1-Pad17)")
      (node (ref IC1) (pin 17)))
    (net (code 16) (name "Net-(IC1-Pad16)")
      (node (ref IC1) (pin 16)))
    (net (code 17) (name "Net-(IC1-Pad15)")
      (node (ref IC1) (pin 15)))
    (net (code 18) (name "Net-(IC1-Pad14)")
      (node (ref IC1) (pin 14)))
    (net (code 19) (name "Net-(IC1-Pad13)")
      (node (ref IC1) (pin 13)))
    (net (code 20) (name "Net-(IC1-Pad12)")
      (node (ref IC1) (pin 12)))
    (net (code 21) (name "Net-(IC1-Pad11)")
      (node (ref IC1) (pin 11)))
    (net (code 22) (name "Net-(IC1-Pad10)")
      (node (ref IC1) (pin 10)))
    (net (code 23) (name /SDA)
      (node (ref IC1) (pin 27))
      (node (ref SV2) (pin 3))
      (node (ref SV1) (pin 3)))
    (net (code 24) (name /SCL)
      (node (ref SV2) (pin 4))
      (node (ref SV1) (pin 4))
      (node (ref IC1) (pin 28)))
    (net (code 25) (name "Net-(IC1-Pad1)")
      (node (ref IC1) (pin 1)))
    (net (code 26) (name "Net-(IC1-Pad9)")
      (node (ref IC1) (pin 9)))
    (net (code 27) (name "Net-(IC1-Pad6)")
      (node (ref IC1) (pin 6)))))