G04 EAGLE Gerber RS-274X export*
G75*
%MOMM*%
%FSLAX34Y34*%
%LPD*%
%INSoldermask Bottom*%
%IPPOS*%
%AMOC8*
5,1,8,0,0,1.08239X$1,22.5*%
G01*
%ADD10P,1.649562X8X22.500000*%
%ADD11C,2.133600*%
%ADD12R,2.743200X2.743200*%


D10*
X88900Y38100D03*
X190500Y38100D03*
D11*
X165100Y88900D03*
X139700Y88900D03*
X114300Y88900D03*
D12*
X38100Y88900D03*
X38100Y38100D03*
M02*
