(module DIP762W51P254L991H470Q8 (layer F.Cu) (tedit 0)
  (fp_text reference IC2 (at -3.09949 -6.437332 -180) (layer F.SilkS)
    (effects (font (size 1.207687 1.207687) (thickness 0.096614)) (justify left bottom))
  )
  (fp_text value CNY74-2H (at -3.605559 7.932218 -180) (layer F.Fab)
    (effects (font (size 1.208322 1.208322) (thickness 0.096665)) (justify left bottom))
  )
  (fp_line (start -3.405 -4.955) (end 3.405 -4.95) (layer F.Fab) (width 0.127))
  (fp_line (start 3.405 -4.95) (end 3.405 4.955) (layer F.Fab) (width 0.127))
  (fp_line (start 3.405 4.955) (end -3.405 4.955) (layer F.Fab) (width 0.127))
  (fp_line (start -3.405 4.955) (end -3.405 -4.955) (layer F.Fab) (width 0.127))
  (fp_circle (center -5.07 -3.93) (end -4.87 -3.93) (layer F.SilkS) (width 0.2))
  (fp_line (start 4.71 -5.21) (end 4.71 5.21) (layer Dwgs.User) (width 0.05))
  (fp_line (start 4.71 5.21) (end -4.71 5.21) (layer Dwgs.User) (width 0.05))
  (fp_line (start -4.71 5.21) (end -4.71 -5.21) (layer Dwgs.User) (width 0.05))
  (fp_line (start -4.71 -5.21) (end 4.71 -5.21) (layer Dwgs.User) (width 0.05))
  (fp_line (start -3.405 -4.955) (end 3.405 -4.955) (layer F.SilkS) (width 0.127))
  (fp_line (start 3.405 4.955) (end -3.405 4.955) (layer F.SilkS) (width 0.127))
  (pad 1 thru_hole rect (at -3.81 -3.81) (size 1.1964 1.1964) (drill 0.79) (layers *.Cu *.Mask)
    (solder_mask_margin 0.0762))
  (pad 2 thru_hole circle (at -3.81 -1.27) (size 1.1964 1.1964) (drill 0.79) (layers *.Cu *.Mask)
    (solder_mask_margin 0.0762))
  (pad 3 thru_hole circle (at -3.81 1.27) (size 1.1964 1.1964) (drill 0.79) (layers *.Cu *.Mask)
    (solder_mask_margin 0.0762))
  (pad 4 thru_hole circle (at -3.81 3.81) (size 1.1964 1.1964) (drill 0.79) (layers *.Cu *.Mask)
    (solder_mask_margin 0.0762))
  (pad 5 thru_hole circle (at 3.81 3.81) (size 1.1964 1.1964) (drill 0.79) (layers *.Cu *.Mask)
    (solder_mask_margin 0.0762))
  (pad 6 thru_hole circle (at 3.81 1.27) (size 1.1964 1.1964) (drill 0.79) (layers *.Cu *.Mask)
    (solder_mask_margin 0.0762))
  (pad 7 thru_hole circle (at 3.81 -1.27) (size 1.1964 1.1964) (drill 0.79) (layers *.Cu *.Mask)
    (solder_mask_margin 0.0762))
  (pad 8 thru_hole circle (at 3.81 -3.81) (size 1.1964 1.1964) (drill 0.79) (layers *.Cu *.Mask)
    (solder_mask_margin 0.0762))
)
