(module W237-102 (layer F.Cu) (tedit 0)
  (descr "<b>WAGO SCREW CLAMP</b>")
  (fp_text reference X1 (at -3.8462 5.0038) (layer F.SilkS) hide
    (effects (font (size 1.2065 1.2065) (thickness 0.127)) (justify left bottom))
  )
  (fp_text value "" (at -5.04 7.62) (layer F.Fab)
    (effects (font (size 1.2065 1.2065) (thickness 0.12065)) (justify left bottom))
  )
  (fp_line (start -3.491 2.286) (end -1.484 0.279) (layer F.Fab) (width 0.254))
  (fp_line (start 1.488 2.261) (end 3.469 0.254) (layer F.Fab) (width 0.254))
  (fp_line (start -4.989 5.461) (end 4.993 5.461) (layer F.SilkS) (width 0.1524))
  (fp_line (start 4.993 -3.734) (end 4.993 -3.531) (layer F.SilkS) (width 0.1524))
  (fp_line (start 4.993 -3.734) (end -4.989 -3.734) (layer F.SilkS) (width 0.1524))
  (fp_line (start -4.989 5.461) (end -4.989 3.073) (layer F.SilkS) (width 0.1524))
  (fp_line (start -4.989 3.073) (end -3.389 3.073) (layer F.SilkS) (width 0.1524))
  (fp_line (start -3.389 3.073) (end -1.611 3.073) (layer F.Fab) (width 0.1524))
  (fp_line (start -1.611 3.073) (end 1.615 3.073) (layer F.SilkS) (width 0.1524))
  (fp_line (start 3.393 3.073) (end 4.993 3.073) (layer F.SilkS) (width 0.1524))
  (fp_line (start -4.989 3.073) (end -4.989 -3.531) (layer F.SilkS) (width 0.1524))
  (fp_line (start 4.993 3.073) (end 4.993 5.461) (layer F.SilkS) (width 0.1524))
  (fp_line (start -4.989 -3.531) (end 4.993 -3.531) (layer F.SilkS) (width 0.1524))
  (fp_line (start -4.989 -3.531) (end -4.989 -3.734) (layer F.SilkS) (width 0.1524))
  (fp_line (start 4.993 -3.531) (end 4.993 3.073) (layer F.SilkS) (width 0.1524))
  (fp_line (start 1.615 3.073) (end 3.393 3.073) (layer F.Fab) (width 0.1524))
  (fp_circle (center -2.5 1.27) (end -1.0014 1.27) (layer F.Fab) (width 0.1524))
  (fp_circle (center -2.5 -2.2098) (end -1.992 -2.2098) (layer F.SilkS) (width 0.1524))
  (fp_circle (center 2.5038 1.27) (end 4.0024 1.27) (layer F.Fab) (width 0.1524))
  (fp_circle (center 2.5038 -2.2098) (end 3.0118 -2.2098) (layer F.SilkS) (width 0.1524))
  (fp_text user 1 (at -4.532 -0.635) (layer F.SilkS)
    (effects (font (size 1.2065 1.2065) (thickness 0.127)) (justify left bottom))
  )
  (fp_text user 2 (at 0.421 -0.635) (layer F.SilkS)
    (effects (font (size 1.2065 1.2065) (thickness 0.127)) (justify left bottom))
  )
  (pad 1 thru_hole oval (at -2.5 1.27 90) (size 3.2004 1.6002) (drill 1.1938) (layers *.Cu *.Mask)
    (solder_mask_margin 0.0762))
  (pad 2 thru_hole oval (at 2.5 1.27 90) (size 3.2004 1.6002) (drill 1.1938) (layers *.Cu *.Mask)
    (solder_mask_margin 0.0762))
)
