(module TO92-EBC (layer F.Cu) (tedit 0)
  (descr "<b>TO-92</b><p>\ngrid 5.08 mm")
  (fp_text reference Q2 (at -2.54 -1.778) (layer F.SilkS) hide
    (effects (font (size 1.2065 1.2065) (thickness 0.127)) (justify right top))
  )
  (fp_text value BC556 (at -2.54 -1.778 -180) (layer F.Fab)
    (effects (font (size 1.2065 1.2065) (thickness 0.12065)) (justify left bottom))
  )
  (fp_line (start -2.095 2.921) (end 2.095 2.921) (layer F.SilkS) (width 0.127))
  (fp_arc (start 0 1.270008) (end -2.413 0.1341) (angle 129.583) (layer F.SilkS) (width 0.127))
  (fp_line (start 1.136 1.397) (end -1.136 1.397) (layer F.Fab) (width 0.127))
  (fp_arc (start -0.000002 1.27) (end -2.413 0.1341) (angle -50.4167) (layer F.Fab) (width 0.127))
  (fp_line (start -1.404 1.397) (end -2.664 1.397) (layer F.Fab) (width 0.127))
  (fp_arc (start -0.000495 1.269893) (end -2.4135 2.4059) (angle -13.0385) (layer F.SilkS) (width 0.127))
  (fp_line (start -1.136 1.397) (end -1.404 1.397) (layer F.SilkS) (width 0.127))
  (fp_arc (start 0.000002 1.27) (end 2.413 2.4059) (angle -50.4167) (layer F.Fab) (width 0.127))
  (fp_line (start 2.664 1.397) (end 1.404 1.397) (layer F.Fab) (width 0.127))
  (fp_line (start 1.404 1.397) (end 1.136 1.397) (layer F.SilkS) (width 0.127))
  (fp_arc (start 0.000492 1.26989) (end 2.095 2.921) (angle -13.6094) (layer F.SilkS) (width 0.127))
  (pad C thru_hole oval (at -2.54 1.27 90) (size 2.4384 1.2192) (drill 0.8128) (layers *.Cu *.Mask)
    (solder_mask_margin 0.0762))
  (pad E thru_hole oval (at 2.54 1.27 90) (size 2.4384 1.2192) (drill 0.8128) (layers *.Cu *.Mask)
    (solder_mask_margin 0.0762))
  (pad B thru_hole oval (at 0 1.27 90) (size 2.4384 1.2192) (drill 0.8128) (layers *.Cu *.Mask)
    (solder_mask_margin 0.0762))
)
