(module LED3MM (layer F.Cu) (tedit 0)
  (descr "<B>LED</B><p>\n3 mm, round")
  (fp_text reference LED2 (at 1.905 -0.381) (layer F.SilkS) hide
    (effects (font (size 1.2065 1.2065) (thickness 0.127)) (justify left bottom))
  )
  (fp_text value "" (at -3.81 3.175) (layer F.Fab)
    (effects (font (size 1.2065 1.2065) (thickness 0.09652)) (justify left bottom))
  )
  (fp_line (start 1.5748 1.27) (end 1.5748 -1.27) (layer F.Fab) (width 0.254))
  (fp_arc (start 0 0.000004) (end -1.524 0) (angle 39.80361) (layer F.Fab) (width 0.1524))
  (fp_arc (start 0 0.000063) (end -1.524 0) (angle -41.633208) (layer F.Fab) (width 0.1524))
  (fp_arc (start 0 0.000014) (end 1.1571 -0.9918) (angle 40.601165) (layer F.Fab) (width 0.1524))
  (fp_arc (start 0 -0.000004) (end 1.1708 0.9756) (angle -39.80361) (layer F.Fab) (width 0.1524))
  (fp_arc (start -0.000034 0) (end 0 -1.524) (angle 54.461337) (layer F.SilkS) (width 0.1524))
  (fp_arc (start 0 0) (end -1.2192 -0.9144) (angle 53.130102) (layer F.SilkS) (width 0.1524))
  (fp_arc (start -0.000008 0) (end 0 1.524) (angle -52.126876) (layer F.SilkS) (width 0.1524))
  (fp_arc (start 0.000008 0) (end -1.203 0.9356) (angle -52.126876) (layer F.SilkS) (width 0.1524))
  (fp_arc (start 0 0) (end -0.635 0) (angle 90) (layer F.Fab) (width 0.1524))
  (fp_arc (start 0 0) (end -1.016 0) (angle 90) (layer F.Fab) (width 0.1524))
  (fp_arc (start 0 0) (end 0 0.635) (angle -90) (layer F.Fab) (width 0.1524))
  (fp_arc (start 0 0) (end 0 1.016) (angle -90) (layer F.Fab) (width 0.1524))
  (fp_arc (start 0.000012 0) (end 0 -2.032) (angle 50.193108) (layer F.SilkS) (width 0.254))
  (fp_arc (start 0.00006 0) (end -1.7929 -0.9562) (angle 61.926949) (layer F.SilkS) (width 0.254))
  (fp_arc (start 0.000037 0) (end 0 2.032) (angle -49.763022) (layer F.SilkS) (width 0.254))
  (fp_arc (start -0.000056 0) (end -1.7643 1.0082) (angle -60.255215) (layer F.SilkS) (width 0.254))
  (fp_arc (start 0 0.000002) (end -2.032 0) (angle 28.301701) (layer F.Fab) (width 0.254))
  (fp_arc (start 0 0.000083) (end -2.032 0) (angle -31.60822) (layer F.Fab) (width 0.254))
  (pad A thru_hole circle (at -1.27 0) (size 1.2192 1.2192) (drill 0.8128) (layers *.Cu *.Mask)
    (solder_mask_margin 0.0762))
  (pad K thru_hole circle (at 1.27 0) (size 1.2192 1.2192) (drill 0.8128) (layers *.Cu *.Mask)
    (solder_mask_margin 0.0762))
)
