(module RFM (layer F.Cu) (tedit 0)
  (fp_text reference U$1 (at 3.01625 -17.30375) (layer F.SilkS) hide
    (effects (font (size 1.6891 1.6891) (thickness 0.14224)) (justify left bottom))
  )
  (fp_text value RFM69HW (at 0 -17.62125) (layer F.Fab)
    (effects (font (size 1.6891 1.6891) (thickness 0.135128)) (justify left bottom))
  )
  (fp_line (start 0 -16.3175) (end 19.65125 -16.3175) (layer F.SilkS) (width 0.127))
  (fp_line (start 0 0) (end 19.65125 0) (layer F.SilkS) (width 0.127))
  (fp_arc (start 0 -1.0475) (end 0 -1.2975) (angle 180) (layer F.SilkS) (width 0.127))
  (fp_arc (start 0 -2.88875) (end 0 -3.13875) (angle 180) (layer F.SilkS) (width 0.127))
  (fp_arc (start 0 -4.88875) (end 0 -5.13875) (angle 180) (layer F.SilkS) (width 0.127))
  (fp_arc (start 0 -6.88875) (end 0 -7.13875) (angle 180) (layer F.SilkS) (width 0.127))
  (fp_arc (start 0 -9.0475) (end 0 -9.2975) (angle 180) (layer F.SilkS) (width 0.127))
  (fp_arc (start 0 -11.0475) (end 0 -11.2975) (angle 180) (layer F.SilkS) (width 0.127))
  (fp_arc (start 0 -13.20625) (end 0 -13.45625) (angle 180) (layer F.SilkS) (width 0.127))
  (fp_line (start 0 0) (end 0 -0.7975) (layer F.SilkS) (width 0.127))
  (fp_line (start 0 -1.2975) (end 0 -2.63875) (layer F.SilkS) (width 0.127))
  (fp_line (start 0 -3.13875) (end 0 -4.63875) (layer F.SilkS) (width 0.127))
  (fp_line (start 0 -5.13875) (end 0 -6.63875) (layer F.SilkS) (width 0.127))
  (fp_line (start 0 -7.13875) (end 0 -8.7975) (layer F.SilkS) (width 0.127))
  (fp_line (start 0 -9.2975) (end 0 -10.7975) (layer F.SilkS) (width 0.127))
  (fp_line (start 0 -11.2975) (end 0 -12.95625) (layer F.SilkS) (width 0.127))
  (fp_line (start 0 -13.45625) (end 0 -15.02) (layer F.SilkS) (width 0.127))
  (fp_line (start 0 -15.52) (end 0 -16.3175) (layer F.SilkS) (width 0.127))
  (fp_arc (start 19.65125 -1.0475) (end 19.65125 -0.7975) (angle 180) (layer F.SilkS) (width 0.127))
  (fp_arc (start 19.65125 -2.88875) (end 19.65125 -2.63875) (angle 180) (layer F.SilkS) (width 0.127))
  (fp_arc (start 19.65125 -4.88875) (end 19.65125 -4.63875) (angle 180) (layer F.SilkS) (width 0.127))
  (fp_arc (start 19.65125 -7.0475) (end 19.65125 -6.7975) (angle 180) (layer F.SilkS) (width 0.127))
  (fp_arc (start 19.65125 -9.0475) (end 19.65125 -8.7975) (angle 180) (layer F.SilkS) (width 0.127))
  (fp_arc (start 19.65125 -11.0475) (end 19.65125 -10.7975) (angle 180) (layer F.SilkS) (width 0.127))
  (fp_arc (start 19.65125 -13.20625) (end 19.65125 -12.95625) (angle 180) (layer F.SilkS) (width 0.127))
  (fp_line (start 19.65125 0) (end 19.65125 -0.7975) (layer F.SilkS) (width 0.127))
  (fp_line (start 19.65125 -1.2975) (end 19.65125 -2.63875) (layer F.SilkS) (width 0.127))
  (fp_line (start 19.65125 -3.13875) (end 19.65125 -4.63875) (layer F.SilkS) (width 0.127))
  (fp_line (start 19.65125 -5.13875) (end 19.65125 -6.7975) (layer F.SilkS) (width 0.127))
  (fp_line (start 19.65125 -7.2975) (end 19.65125 -8.7975) (layer F.SilkS) (width 0.127))
  (fp_line (start 19.65125 -9.2975) (end 19.65125 -10.7975) (layer F.SilkS) (width 0.127))
  (fp_line (start 19.65125 -11.2975) (end 19.65125 -12.95625) (layer F.SilkS) (width 0.127))
  (fp_line (start 19.65125 -13.45625) (end 19.65125 -15.02) (layer F.SilkS) (width 0.127))
  (fp_line (start 19.65125 -15.52) (end 19.65125 -16.3175) (layer F.SilkS) (width 0.127))
  (fp_arc (start 0 -15.27) (end 0 -15.52) (angle 180) (layer F.SilkS) (width 0.127))
  (fp_arc (start 19.65125 -15.27) (end 19.65125 -15.02) (angle 180) (layer F.SilkS) (width 0.127))
  (fp_line (start 2.54 -15.875) (end 2.54 -11.1125) (layer F.SilkS) (width 0.127))
  (fp_line (start 2.54 -11.1125) (end 15.875 -11.1125) (layer F.SilkS) (width 0.127))
  (fp_line (start 15.875 -11.1125) (end 15.875 -15.875) (layer F.SilkS) (width 0.127))
  (fp_line (start 15.875 -15.875) (end 2.54 -15.875) (layer F.SilkS) (width 0.127))
  (fp_line (start 3.01625 -7.3025) (end 3.01625 -3.65125) (layer F.SilkS) (width 0.127))
  (fp_line (start 3.01625 -3.65125) (end 6.50875 -3.65125) (layer F.SilkS) (width 0.127))
  (fp_line (start 6.50875 -3.81) (end 6.50875 -7.3025) (layer F.SilkS) (width 0.127))
  (fp_line (start 6.50875 -7.3025) (end 3.01625 -7.3025) (layer F.SilkS) (width 0.127))
  (fp_text user RFM69HW (at 5.44 -12.96875) (layer F.SilkS)
    (effects (font (size 1.2065 1.2065) (thickness 0.1016)) (justify left bottom))
  )
  (pad RESET smd rect (at 0 -15.27) (size 2.1844 1.0668) (layers F.Cu F.Paste F.Mask)
    (solder_mask_margin 0.0762))
  (pad DIO0 smd rect (at 0 -13.27) (size 2.1844 1.0668) (layers F.Cu F.Paste F.Mask)
    (solder_mask_margin 0.0762))
  (pad DIO2 smd rect (at 0 -9.0475) (size 2.1844 1.0668) (layers F.Cu F.Paste F.Mask)
    (solder_mask_margin 0.0762))
  (pad DIO3 smd rect (at 0 -6.88875) (size 2.1844 1.0668) (layers F.Cu F.Paste F.Mask)
    (solder_mask_margin 0.0762))
  (pad DIO4 smd rect (at 0 -4.88875) (size 2.1844 1.0668) (layers F.Cu F.Paste F.Mask)
    (solder_mask_margin 0.0762))
  (pad DIO5 smd rect (at 0 -2.88875) (size 2.1844 1.0668) (layers F.Cu F.Paste F.Mask)
    (solder_mask_margin 0.0762))
  (pad VCC smd rect (at 0 -1.0475) (size 2.1844 1.0668) (layers F.Cu F.Paste F.Mask)
    (solder_mask_margin 0.0762))
  (pad GNDB smd rect (at 19.65125 -1.0475) (size 2.1844 1.0668) (layers F.Cu F.Paste F.Mask)
    (solder_mask_margin 0.0762))
  (pad ANT smd rect (at 19.65125 -2.88875) (size 2.1844 1.0668) (layers F.Cu F.Paste F.Mask)
    (solder_mask_margin 0.0762))
  (pad GNDA smd rect (at 19.65125 -4.88875) (size 2.1844 1.0668) (layers F.Cu F.Paste F.Mask)
    (solder_mask_margin 0.0762))
  (pad SCK smd rect (at 19.65125 -7.0475) (size 2.1844 1.0668) (layers F.Cu F.Paste F.Mask)
    (solder_mask_margin 0.0762))
  (pad MISO smd rect (at 19.65125 -9.0475) (size 2.1844 1.0668) (layers F.Cu F.Paste F.Mask)
    (solder_mask_margin 0.0762))
  (pad MOSI smd rect (at 19.65125 -11.0475) (size 2.1844 1.0668) (layers F.Cu F.Paste F.Mask)
    (solder_mask_margin 0.0762))
  (pad NSS smd rect (at 19.65125 -13.20625) (size 2.1844 1.0668) (layers F.Cu F.Paste F.Mask)
    (solder_mask_margin 0.0762))
  (pad NC smd rect (at 19.65125 -15.33375) (size 2.1844 1.0668) (layers F.Cu F.Paste F.Mask)
    (solder_mask_margin 0.0762))
  (pad DIO1 smd rect (at 0 -11.1425) (size 2.1844 1.0668) (layers F.Cu F.Paste F.Mask)
    (solder_mask_margin 0.0762))
)
